<?xml version="1.0" encoding="utf-8"?>
<!-- Generator: Adobe Illustrator 16.0.0, SVG Export Plug-In . SVG Version: 6.00 Build 0)  -->
<!DOCTYPE svg PUBLIC "-//W3C//DTD SVG 1.1//EN" "http://www.w3.org/Graphics/SVG/1.1/DTD/svg11.dtd">
<svg version="1.1" id="Layer_1" xmlns="http://www.w3.org/2000/svg" xmlns:xlink="http://www.w3.org/1999/xlink" x="0px" y="0px"
	 width="11.645px" height="57.398px" viewBox="0 0 11.645 57.398" enable-background="new 0 0 11.645 57.398" xml:space="preserve">
<line stroke="#000000" x1="11.305" y1="28.86" x2="0.468" y2="0.177"/>
<line stroke="#000000" x1="11.305" y1="28.538" x2="0.468" y2="57.222"/>
</svg>
