<?xml version="1.0" encoding="utf-8"?>
<!-- Generator: Adobe Illustrator 16.0.0, SVG Export Plug-In . SVG Version: 6.00 Build 0)  -->
<!DOCTYPE svg PUBLIC "-//W3C//DTD SVG 1.1//EN" "http://www.w3.org/Graphics/SVG/1.1/DTD/svg11.dtd">
<svg version="1.1" id="Layer_1" xmlns="http://www.w3.org/2000/svg" xmlns:xlink="http://www.w3.org/1999/xlink" x="0px" y="0px"
	 width="20.859px" height="20.871px" viewBox="0 0 20.859 20.871" enable-background="new 0 0 20.859 20.871" xml:space="preserve">
<path fill="#010101" d="M10.43,3.62c2.22,0,2.479,0.008,3.357,0.048c0.811,0.037,1.25,0.173,1.543,0.287
	c0.391,0.15,0.667,0.33,0.958,0.62s0.473,0.57,0.622,0.957c0.112,0.293,0.248,0.732,0.284,1.544c0.04,0.876,0.05,1.14,0.05,3.36
	c0,2.218-0.01,2.48-0.05,3.356c-0.036,0.812-0.172,1.252-0.285,1.545c-0.15,0.388-0.333,0.664-0.624,0.955s-0.567,0.472-0.956,0.623
	c-0.292,0.112-0.729,0.248-1.542,0.285c-0.876,0.04-1.14,0.05-3.357,0.05c-2.221,0-2.483-0.01-3.36-0.05
	c-0.811-0.037-1.25-0.173-1.542-0.285c-0.39-0.149-0.666-0.332-0.956-0.623c-0.29-0.29-0.47-0.567-0.62-0.955
	c-0.115-0.293-0.25-0.733-0.287-1.545c-0.04-0.875-0.05-1.14-0.05-3.357c0-2.22,0.01-2.483,0.05-3.36
	c0.035-0.81,0.17-1.25,0.284-1.543c0.15-0.388,0.33-0.665,0.62-0.956c0.29-0.29,0.565-0.47,0.955-0.62
	c0.293-0.115,0.733-0.25,1.544-0.288c0.876-0.04,1.14-0.048,3.36-0.048 M10.428,2.122c-2.261,0-2.54,0.01-3.429,0.05
	c-0.888,0.04-1.49,0.18-2.02,0.386c-0.547,0.213-1.01,0.497-1.473,0.96c-0.462,0.463-0.743,0.925-0.956,1.47
	c-0.205,0.53-0.347,1.134-0.388,2.02c-0.04,0.886-0.05,1.17-0.05,3.427c0,2.256,0.01,2.54,0.05,3.428
	c0.04,0.885,0.183,1.488,0.388,2.018c0.213,0.547,0.496,1.01,0.961,1.475c0.46,0.461,0.924,0.744,1.47,0.961
	c0.53,0.201,1.135,0.346,2.02,0.385c0.888,0.04,1.17,0.05,3.429,0.05c2.258,0,2.54-0.01,3.427-0.05
	c0.884-0.04,1.486-0.184,2.017-0.387c0.547-0.215,1.01-0.498,1.474-0.961c0.463-0.461,0.748-0.927,0.96-1.472
	c0.206-0.526,0.346-1.13,0.386-2.016c0.04-0.89,0.052-1.173,0.052-3.428c0-2.258-0.01-2.54-0.052-3.428
	c-0.04-0.885-0.18-1.49-0.386-2.018c-0.212-0.547-0.497-1.01-0.96-1.474c-0.46-0.462-0.926-0.746-1.473-0.96
	c-0.527-0.204-1.133-0.345-2.02-0.385c-0.888-0.037-1.17-0.047-3.429-0.047"/>
<path fill="#010101" d="M10.43,6.166c-2.358,0-4.271,1.91-4.271,4.268s1.91,4.27,4.271,4.27c2.355,0,4.27-1.91,4.27-4.27
	C14.698,8.077,12.786,6.166,10.43,6.166 M10.43,13.206c-1.53,0-2.771-1.24-2.771-2.772c0-1.53,1.24-2.77,2.771-2.77
	c1.529,0,2.77,1.24,2.77,2.77c0,1.53-1.24,2.77-2.77,2.77 M15.864,5.997c0,0.55-0.446,0.998-0.996,0.998
	c-0.552,0-0.998-0.447-0.998-0.998c0-0.55,0.446-0.998,0.998-0.998c0.55,0,0.996,0.445,0.996,0.996"/>
</svg>
