<?xml version="1.0" encoding="utf-8"?>
<!-- Generator: Adobe Illustrator 14.0.0, SVG Export Plug-In . SVG Version: 6.00 Build 43363)  -->
<!DOCTYPE svg PUBLIC "-//W3C//DTD SVG 1.1//EN" "http://www.w3.org/Graphics/SVG/1.1/DTD/svg11.dtd">
<svg version="1.1" id="Capa_1" xmlns="http://www.w3.org/2000/svg" xmlns:xlink="http://www.w3.org/1999/xlink" x="0px" y="0px"
	 width="20px" height="20px" viewBox="296 296 20 20" enable-background="new 296 296 20 20" xml:space="preserve">
<polygon points="313.5,299.382 312.631,298.515 306,305.132 299.369,298.515 298.5,299.382 305.13,306 298.5,312.617 
	299.369,313.485 306,306.867 312.631,313.485 313.5,312.617 306.869,306 "/>
</svg>
