<?xml version="1.0" encoding="utf-8"?>
<!-- Generator: Adobe Illustrator 16.0.0, SVG Export Plug-In . SVG Version: 6.00 Build 0)  -->
<!DOCTYPE svg PUBLIC "-//W3C//DTD SVG 1.1//EN" "http://www.w3.org/Graphics/SVG/1.1/DTD/svg11.dtd">
<svg version="1.1" id="Capa_1" xmlns="http://www.w3.org/2000/svg" xmlns:xlink="http://www.w3.org/1999/xlink" x="0px" y="0px"
	 width="511.998px" height="303.374px" viewBox="0.001 104.315 511.998 303.374"
	 enable-background="new 0.001 104.315 511.998 303.374" xml:space="preserve">
<g>
	<g>
		<path d="M313.752,109.063c14.29,2.021,28.284,5.61,42.112,9.859c24.139,7.433,46.916,17.76,68.339,31.156
			c1.49,0.925,3.479,1.512,5.234,1.512c25.162,0.104,50.314,0.067,75.455,0.088c2.026,0,4.042,0.213,6.063,0.327
			c0,0.494,0.072,0.701-0.011,0.815c-1.174,1.808-2.363,3.589-3.542,5.392c-8.535,13.09-15.828,26.783-20.135,41.919
			c-0.468,1.626-0.565,2.987,0.534,4.582c22.399,32.164,29.547,67.477,20.188,105.541c-8.208,33.386-27.344,59.415-56.423,77.846
			c-20.783,13.179-43.743,19.453-68.271,19.588c-10.306,0.063-20.561-1.323-30.626-3.932c-24.528-6.363-45.556-18.592-62.885-37.109
			c-2.285-2.432-4.437-4.972-6.873-7.72c-9.162,13.656-18.181,27.089-27.416,40.876c-9.199-13.745-18.092-27.049-26.964-40.299
			c-0.613,0.322-0.79,0.357-0.909,0.473c-0.203,0.166-0.374,0.368-0.535,0.562c-20.959,24.752-47.327,39.925-79.45,45
			c-17.869,2.831-35.566,1.813-52.921-2.971c-24.596-6.76-45.499-19.734-62.386-38.882C15.828,344.964,5.564,323.23,1.709,298.52
			c-4.41-23.063,0.961-45.3,2.301-50.697c3.885-15.688,10.659-30.092,19.957-43.338c0.655-0.939,0.883-2.603,0.571-3.725
			c-3.792-13.904-10.327-26.554-17.978-38.667c-1.943-3.081-4.27-5.932-6.42-8.888c0-0.337,0-0.686,0-1.028
			c0.431,0.052,0.857,0.136,1.278,0.136c25.744,0.01,51.483,0.021,77.227-0.031c1.122,0,2.369-0.462,3.325-1.075
			c18.087-11.604,37.358-20.799,57.607-27.957c14.602-5.153,29.51-9.173,44.714-12.119c14.721-2.847,29.521-4.852,44.475-5.838
			C265.226,102.487,294.367,106.347,313.752,109.063z M281.479,279.084c0,56.531,45.867,102.717,102.196,102.498
			c56.542-0.203,102.201-45.088,102.159-102.243c-0.041-58.899-47.82-103.178-104.352-102.03
			C325.674,178.467,281.987,223.451,281.479,279.084z M128.185,176.919c-54.99-0.478-102.935,45.415-101.974,103.874
			c0.894,54.517,45.826,100.732,103.116,100.238c56.018-0.479,101.043-46.222,101.147-101.614
			C230.563,222.506,184.986,176.919,128.185,176.919z M133.254,150.25c31.063,1.896,58.35,12.721,81.403,33.688
			c23.006,20.922,36.486,47.024,41.384,77.719c5.039-30.33,18.166-56.188,40.739-76.904c22.613-20.736,49.535-31.619,80.09-33.92
			c-36.258-16.119-74.488-22.965-113.842-23.723C218.304,126.231,174.8,132.823,133.254,150.25z"/>
		<path d="M383.468,214.589c34.984-0.057,63.32,28.128,63.32,63.077c0,35.084-27.854,62.204-60.713,63.456
			c-36.699,1.407-66.063-27.832-66.053-63.3C320.054,241.949,349.625,213.998,383.468,214.589z M424.732,277.822
			c-0.017-22.805-18.451-41.338-41.1-41.338c-22.907,0-41.556,18.435-41.649,41.172c-0.082,22.637,18.658,41.473,41.354,41.535
			C406.068,319.279,424.743,300.584,424.732,277.822z"/>
		<path d="M126.834,214.589c34.964-0.036,63.341,28.201,63.253,63.146c-0.099,35.368-27.978,61.896-60.261,63.366
			c-36.844,1.684-66.572-27.688-66.505-63.348C63.394,241.627,93.168,213.986,126.834,214.589z M168.052,277.682
			c-0.068-22.943-18.623-41.233-41.785-41.191c-22.341,0.042-41.063,18.898-41.01,41.322c0.057,22.685,18.757,41.338,41.514,41.399
			C149.388,319.264,168.109,300.43,168.052,277.682z"/>
		<path d="M383.499,256.831c11.594-0.011,21.1,9.501,20.99,21.026c-0.114,11.554-9.459,20.914-20.86,20.918
			c-11.739,0-21.178-9.276-21.151-20.771C362.497,266.077,371.666,256.842,383.499,256.831z"/>
		<path d="M126.725,256.645c11.771-0.011,21.23,9.392,21.277,21.125c0.047,11.638-9.501,21.189-21.214,21.215
			c-11.994,0.025-21.246-9.24-21.235-21.297C105.552,265.85,114.783,256.66,126.725,256.645z"/>
	</g>
</g>
</svg>
